<mxfile host="app.diagrams.net" modified="2020-12-20T13:52:56.010Z" agent="5.0 (X11)" etag="PNV_NMGVq4rklNQ6cbT9" version="14.1.1" type="gitlab">
  <diagram id="h5yrktmv3tRVzZURwnBP" name="Page-1">
    <mxGraphModel dx="3694" dy="2708" grid="1" gridSize="10" guides="1" tooltips="1" connect="1" arrows="1" fold="1" page="1" pageScale="1" pageWidth="850" pageHeight="1100" math="0" shadow="0">
      <root>
        <mxCell id="0" />
        <mxCell id="1" parent="0" />
        <mxCell id="Kib020q9NDJkZ7_L9mo0-61" value="" style="rounded=1;arcSize=10;dashed=1;fillColor=none;gradientColor=none;dashPattern=1 1;strokeWidth=2;fontSize=22;" parent="1" vertex="1">
          <mxGeometry x="1640" y="330" width="140" height="1030" as="geometry" />
        </mxCell>
        <mxCell id="Kib020q9NDJkZ7_L9mo0-33" value="Privatesubnet 1" style="rounded=1;arcSize=10;dashed=0;fillColor=none;gradientColor=none;strokeWidth=2;fontSize=32;verticalAlign=bottom;" parent="1" vertex="1">
          <mxGeometry x="1040" y="290" width="1060" height="380" as="geometry" />
        </mxCell>
        <mxCell id="Kib020q9NDJkZ7_L9mo0-7" value="" style="rounded=1;arcSize=10;dashed=0;fillColor=none;gradientColor=none;strokeWidth=2;fontSize=32;" parent="1" vertex="1">
          <mxGeometry x="300" y="220" width="1900" height="1270" as="geometry" />
        </mxCell>
        <mxCell id="Kib020q9NDJkZ7_L9mo0-1" value="" style="rounded=1;arcSize=10;dashed=0;fillColor=none;gradientColor=none;strokeWidth=2;" parent="1" vertex="1">
          <mxGeometry x="140" y="100" width="2300" height="1470" as="geometry" />
        </mxCell>
        <mxCell id="Kib020q9NDJkZ7_L9mo0-5" value="Region" style="rounded=1;arcSize=10;dashed=1;fillColor=none;gradientColor=none;dashPattern=1 1;strokeWidth=2;fontSize=32;verticalAlign=bottom;" parent="1" vertex="1">
          <mxGeometry x="170" y="116" width="2250" height="1430" as="geometry" />
        </mxCell>
        <mxCell id="Kib020q9NDJkZ7_L9mo0-64" style="edgeStyle=orthogonalEdgeStyle;rounded=0;orthogonalLoop=1;jettySize=auto;html=1;entryX=0.385;entryY=0.224;entryDx=0;entryDy=0;entryPerimeter=0;fontSize=22;" parent="1" source="Kib020q9NDJkZ7_L9mo0-43" target="Kib020q9NDJkZ7_L9mo0-57" edge="1">
          <mxGeometry relative="1" as="geometry">
            <Array as="points">
              <mxPoint x="1360" y="835" />
              <mxPoint x="1360" y="310" />
              <mxPoint x="1870" y="310" />
            </Array>
          </mxGeometry>
        </mxCell>
        <mxCell id="Kib020q9NDJkZ7_L9mo0-70" style="edgeStyle=orthogonalEdgeStyle;rounded=0;orthogonalLoop=1;jettySize=auto;html=1;fontSize=22;" parent="1" source="Kib020q9NDJkZ7_L9mo0-43" target="Kib020q9NDJkZ7_L9mo0-54" edge="1">
          <mxGeometry relative="1" as="geometry">
            <Array as="points">
              <mxPoint x="2310" y="835" />
            </Array>
          </mxGeometry>
        </mxCell>
        <mxCell id="Kib020q9NDJkZ7_L9mo0-72" style="edgeStyle=orthogonalEdgeStyle;rounded=0;orthogonalLoop=1;jettySize=auto;html=1;fontSize=22;" parent="1" source="Kib020q9NDJkZ7_L9mo0-43" target="Kib020q9NDJkZ7_L9mo0-71" edge="1">
          <mxGeometry relative="1" as="geometry">
            <Array as="points">
              <mxPoint x="2310" y="835" />
            </Array>
          </mxGeometry>
        </mxCell>
        <mxCell id="Kib020q9NDJkZ7_L9mo0-43" value="" style="rounded=1;arcSize=10;dashed=1;fillColor=none;gradientColor=none;dashPattern=8 3 1 3;strokeWidth=2;fontSize=32;" parent="1" vertex="1">
          <mxGeometry x="1050" y="320" width="270" height="1030" as="geometry" />
        </mxCell>
        <mxCell id="Kib020q9NDJkZ7_L9mo0-3" value="" style="dashed=0;html=1;shape=mxgraph.aws3.cloud;fillColor=#F58536;gradientColor=none;dashed=0;" parent="1" vertex="1">
          <mxGeometry x="150" y="60" width="110" height="80" as="geometry" />
        </mxCell>
        <mxCell id="Kib020q9NDJkZ7_L9mo0-8" value="" style="dashed=0;html=1;shape=mxgraph.aws3.virtual_private_cloud;fillColor=#F58536;gradientColor=none;dashed=0;fontSize=32;" parent="1" vertex="1">
          <mxGeometry x="290" y="160" width="150" height="100" as="geometry" />
        </mxCell>
        <mxCell id="Kib020q9NDJkZ7_L9mo0-20" style="edgeStyle=orthogonalEdgeStyle;rounded=0;orthogonalLoop=1;jettySize=auto;html=1;fontSize=32;" parent="1" source="Kib020q9NDJkZ7_L9mo0-6" target="Kib020q9NDJkZ7_L9mo0-16" edge="1">
          <mxGeometry relative="1" as="geometry" />
        </mxCell>
        <mxCell id="Kib020q9NDJkZ7_L9mo0-28" style="edgeStyle=orthogonalEdgeStyle;rounded=0;orthogonalLoop=1;jettySize=auto;html=1;entryX=0.001;entryY=0.602;entryDx=0;entryDy=0;entryPerimeter=0;fontSize=32;" parent="1" source="Kib020q9NDJkZ7_L9mo0-6" target="Kib020q9NDJkZ7_L9mo0-23" edge="1">
          <mxGeometry relative="1" as="geometry" />
        </mxCell>
        <mxCell id="Kib020q9NDJkZ7_L9mo0-29" style="edgeStyle=orthogonalEdgeStyle;rounded=0;orthogonalLoop=1;jettySize=auto;html=1;entryX=0;entryY=0.5;entryDx=0;entryDy=0;fontSize=32;" parent="1" source="Kib020q9NDJkZ7_L9mo0-6" target="Kib020q9NDJkZ7_L9mo0-21" edge="1">
          <mxGeometry relative="1" as="geometry" />
        </mxCell>
        <mxCell id="Kib020q9NDJkZ7_L9mo0-6" value="&lt;div&gt;Internet &lt;br&gt;&lt;/div&gt;&lt;div&gt;gateway&lt;/div&gt;" style="outlineConnect=0;dashed=0;verticalLabelPosition=bottom;verticalAlign=top;align=center;html=1;shape=mxgraph.aws3.internet_gateway;fillColor=#F58534;gradientColor=none;fontSize=32;" parent="1" vertex="1">
          <mxGeometry x="230" y="732" width="110" height="120" as="geometry" />
        </mxCell>
        <mxCell id="Kib020q9NDJkZ7_L9mo0-12" value="&lt;div style=&quot;font-size: 62px&quot;&gt;&lt;b&gt;Multi AZ Magento Architecture&lt;/b&gt;&lt;/div&gt;&lt;div&gt;&lt;br&gt;&lt;/div&gt;" style="text;html=1;align=center;verticalAlign=middle;resizable=0;points=[];autosize=1;fontSize=32;" parent="1" vertex="1">
          <mxGeometry x="755" y="-10" width="910" height="80" as="geometry" />
        </mxCell>
        <mxCell id="Kib020q9NDJkZ7_L9mo0-13" value="Availability Zone 1" style="rounded=1;arcSize=10;dashed=1;strokeColor=#F59D56;fillColor=none;gradientColor=none;dashPattern=8 4;strokeWidth=2;fontSize=32;verticalAlign=bottom;" parent="1" vertex="1">
          <mxGeometry x="470" y="250" width="1670" height="460" as="geometry" />
        </mxCell>
        <mxCell id="Kib020q9NDJkZ7_L9mo0-14" value="Availability Zone 2" style="rounded=1;arcSize=10;dashed=1;strokeColor=#F59D56;fillColor=none;gradientColor=none;dashPattern=8 4;strokeWidth=2;fontSize=32;verticalAlign=bottom;" parent="1" vertex="1">
          <mxGeometry x="470" y="950" width="1680" height="510" as="geometry" />
        </mxCell>
        <mxCell id="Kib020q9NDJkZ7_L9mo0-16" value="&lt;div&gt;Elistic load balancer&lt;/div&gt;&lt;div&gt;Application level&lt;br&gt;&lt;/div&gt;" style="outlineConnect=0;dashed=0;verticalLabelPosition=bottom;verticalAlign=top;align=center;html=1;shape=mxgraph.aws3.classic_load_balancer;fillColor=#F58534;gradientColor=none;fontSize=32;" parent="1" vertex="1">
          <mxGeometry x="755" y="736" width="100" height="112" as="geometry" />
        </mxCell>
        <mxCell id="Kib020q9NDJkZ7_L9mo0-21" value="Public Subnet&#xa;AZ1" style="rounded=1;arcSize=10;dashed=0;fillColor=none;gradientColor=none;strokeWidth=2;fontSize=32;verticalAlign=bottom;" parent="1" vertex="1">
          <mxGeometry x="520" y="280" width="400" height="410" as="geometry" />
        </mxCell>
        <mxCell id="Kib020q9NDJkZ7_L9mo0-22" value="" style="dashed=0;html=1;shape=mxgraph.aws3.permissions;fillColor=#D9A741;gradientColor=none;dashed=0;fontSize=32;" parent="1" vertex="1">
          <mxGeometry x="520" y="260" width="30" height="35" as="geometry" />
        </mxCell>
        <mxCell id="Kib020q9NDJkZ7_L9mo0-23" value="Public Subnet&#xa;AZ2" style="rounded=1;arcSize=10;dashed=0;fillColor=none;gradientColor=none;strokeWidth=2;fontSize=32;verticalAlign=bottom;" parent="1" vertex="1">
          <mxGeometry x="520" y="990" width="400" height="410" as="geometry" />
        </mxCell>
        <mxCell id="Kib020q9NDJkZ7_L9mo0-24" value="" style="dashed=0;html=1;shape=mxgraph.aws3.permissions;fillColor=#D9A741;gradientColor=none;dashed=0;fontSize=32;" parent="1" vertex="1">
          <mxGeometry x="520" y="970" width="30" height="35" as="geometry" />
        </mxCell>
        <mxCell id="Kib020q9NDJkZ7_L9mo0-25" value="Nat&lt;br&gt;Gateway" style="outlineConnect=0;dashed=0;verticalLabelPosition=bottom;verticalAlign=top;align=center;html=1;shape=mxgraph.aws3.vpc_nat_gateway;fillColor=#F58534;gradientColor=none;fontSize=32;" parent="1" vertex="1">
          <mxGeometry x="570" y="392" width="94" height="110" as="geometry" />
        </mxCell>
        <mxCell id="Kib020q9NDJkZ7_L9mo0-26" value="Bastion host" style="shape=image;html=1;verticalAlign=top;verticalLabelPosition=bottom;labelBackgroundColor=#ffffff;imageAspect=0;aspect=fixed;image=https://cdn4.iconfinder.com/data/icons/logos-brands-5/24/nginx-128.png;fontSize=32;" parent="1" vertex="1">
          <mxGeometry x="755" y="392" width="128" height="128" as="geometry" />
        </mxCell>
        <mxCell id="Kib020q9NDJkZ7_L9mo0-30" value="Nat&lt;br&gt;Gateway" style="outlineConnect=0;dashed=0;verticalLabelPosition=bottom;verticalAlign=top;align=center;html=1;shape=mxgraph.aws3.vpc_nat_gateway;fillColor=#F58534;gradientColor=none;fontSize=32;" parent="1" vertex="1">
          <mxGeometry x="570" y="1120" width="94" height="110" as="geometry" />
        </mxCell>
        <mxCell id="Kib020q9NDJkZ7_L9mo0-31" value="Bastion host" style="shape=image;html=1;verticalAlign=top;verticalLabelPosition=bottom;labelBackgroundColor=#ffffff;imageAspect=0;aspect=fixed;image=https://cdn4.iconfinder.com/data/icons/logos-brands-5/24/nginx-128.png;fontSize=32;" parent="1" vertex="1">
          <mxGeometry x="755" y="1120" width="128" height="128" as="geometry" />
        </mxCell>
        <mxCell id="Kib020q9NDJkZ7_L9mo0-32" value="" style="rounded=1;arcSize=10;dashed=1;fillColor=none;gradientColor=none;dashPattern=8 3 1 3;strokeWidth=2;fontSize=32;" parent="1" vertex="1">
          <mxGeometry x="710" y="351" width="199.5" height="979" as="geometry" />
        </mxCell>
        <mxCell id="Kib020q9NDJkZ7_L9mo0-34" value="" style="dashed=0;html=1;shape=mxgraph.aws3.permissions;fillColor=#D9A741;gradientColor=none;dashed=0;fontSize=32;" parent="1" vertex="1">
          <mxGeometry x="1060" y="270" width="30" height="35" as="geometry" />
        </mxCell>
        <mxCell id="Kib020q9NDJkZ7_L9mo0-35" value="Private subnet 2" style="rounded=1;arcSize=10;dashed=0;fillColor=none;gradientColor=none;strokeWidth=2;fontSize=32;verticalAlign=bottom;" parent="1" vertex="1">
          <mxGeometry x="1030" y="1015" width="1080" height="380" as="geometry" />
        </mxCell>
        <mxCell id="Kib020q9NDJkZ7_L9mo0-36" value="" style="dashed=0;html=1;shape=mxgraph.aws3.permissions;fillColor=#D9A741;gradientColor=none;dashed=0;fontSize=32;" parent="1" vertex="1">
          <mxGeometry x="1050" y="995" width="30" height="35" as="geometry" />
        </mxCell>
        <mxCell id="Kib020q9NDJkZ7_L9mo0-37" value="Magento instance&lt;br&gt;with custom ami" style="outlineConnect=0;dashed=0;verticalLabelPosition=bottom;verticalAlign=top;align=center;html=1;shape=mxgraph.aws3.ec2;fillColor=#F58534;gradientColor=none;fontSize=32;" parent="1" vertex="1">
          <mxGeometry x="1130" y="382" width="130" height="130" as="geometry" />
        </mxCell>
        <mxCell id="Kib020q9NDJkZ7_L9mo0-49" style="edgeStyle=orthogonalEdgeStyle;rounded=0;orthogonalLoop=1;jettySize=auto;html=1;entryX=0.5;entryY=0;entryDx=0;entryDy=0;entryPerimeter=0;fontSize=32;" parent="1" source="Kib020q9NDJkZ7_L9mo0-38" target="Kib020q9NDJkZ7_L9mo0-41" edge="1">
          <mxGeometry relative="1" as="geometry" />
        </mxCell>
        <mxCell id="Kib020q9NDJkZ7_L9mo0-38" value="&lt;font style=&quot;font-size: 22px&quot;&gt;Redis Master&lt;/font&gt;" style="outlineConnect=0;dashed=0;verticalLabelPosition=bottom;verticalAlign=top;align=center;html=1;shape=mxgraph.aws3.redis;fillColor=#2E73B8;gradientColor=none;fontSize=32;" parent="1" vertex="1">
          <mxGeometry x="1490" y="438.5" width="70" height="83" as="geometry" />
        </mxCell>
        <mxCell id="Kib020q9NDJkZ7_L9mo0-50" style="edgeStyle=orthogonalEdgeStyle;rounded=0;orthogonalLoop=1;jettySize=auto;html=1;fontSize=32;" parent="1" source="Kib020q9NDJkZ7_L9mo0-39" target="Kib020q9NDJkZ7_L9mo0-42" edge="1">
          <mxGeometry relative="1" as="geometry" />
        </mxCell>
        <mxCell id="Kib020q9NDJkZ7_L9mo0-39" value="&lt;font style=&quot;font-size: 22px&quot;&gt;RDS Master&lt;br&gt;Mysql&lt;br&gt;&lt;/font&gt;" style="outlineConnect=0;dashed=0;verticalLabelPosition=bottom;verticalAlign=top;align=center;html=1;shape=mxgraph.aws3.rds_db_instance_read_replica;fillColor=#2E73B8;gradientColor=none;fontSize=32;" parent="1" vertex="1">
          <mxGeometry x="1680" y="340" width="50" height="78" as="geometry" />
        </mxCell>
        <mxCell id="Kib020q9NDJkZ7_L9mo0-52" style="edgeStyle=orthogonalEdgeStyle;rounded=0;orthogonalLoop=1;jettySize=auto;html=1;entryX=0;entryY=0.5;entryDx=0;entryDy=0;entryPerimeter=0;fontSize=32;" parent="1" target="Kib020q9NDJkZ7_L9mo0-41" edge="1">
          <mxGeometry relative="1" as="geometry">
            <mxPoint x="1340" y="840" as="sourcePoint" />
          </mxGeometry>
        </mxCell>
        <mxCell id="Kib020q9NDJkZ7_L9mo0-53" style="edgeStyle=orthogonalEdgeStyle;rounded=0;orthogonalLoop=1;jettySize=auto;html=1;fontSize=32;" parent="1" target="Kib020q9NDJkZ7_L9mo0-42" edge="1">
          <mxGeometry relative="1" as="geometry">
            <mxPoint x="1340" y="830" as="sourcePoint" />
            <Array as="points">
              <mxPoint x="1380" y="1183" />
              <mxPoint x="1380" y="1229" />
            </Array>
          </mxGeometry>
        </mxCell>
        <mxCell id="Kib020q9NDJkZ7_L9mo0-40" value="Magento instance&lt;br&gt;with custom ami" style="outlineConnect=0;dashed=0;verticalLabelPosition=bottom;verticalAlign=top;align=center;html=1;shape=mxgraph.aws3.ec2;fillColor=#F58534;gradientColor=none;fontSize=32;" parent="1" vertex="1">
          <mxGeometry x="1130" y="1117.5" width="130" height="130" as="geometry" />
        </mxCell>
        <mxCell id="Kib020q9NDJkZ7_L9mo0-41" value="&lt;font style=&quot;font-size: 22px&quot;&gt;Redis standby&lt;br&gt;&lt;/font&gt;" style="outlineConnect=0;dashed=0;verticalLabelPosition=bottom;verticalAlign=top;align=center;html=1;shape=mxgraph.aws3.redis;fillColor=#2E73B8;gradientColor=none;fontSize=32;" parent="1" vertex="1">
          <mxGeometry x="1490" y="1065.5" width="70" height="83" as="geometry" />
        </mxCell>
        <mxCell id="Kib020q9NDJkZ7_L9mo0-42" value="&lt;font style=&quot;font-size: 22px&quot;&gt;RDS Replica&lt;br&gt;&lt;/font&gt;" style="outlineConnect=0;dashed=0;verticalLabelPosition=bottom;verticalAlign=top;align=center;html=1;shape=mxgraph.aws3.rds_db_instance_read_replica;fillColor=#2E73B8;gradientColor=none;fontSize=32;" parent="1" vertex="1">
          <mxGeometry x="1680" y="1190" width="50" height="78" as="geometry" />
        </mxCell>
        <mxCell id="Kib020q9NDJkZ7_L9mo0-46" style="edgeStyle=orthogonalEdgeStyle;rounded=0;orthogonalLoop=1;jettySize=auto;html=1;fontSize=32;" parent="1" source="Kib020q9NDJkZ7_L9mo0-43" target="Kib020q9NDJkZ7_L9mo0-38" edge="1">
          <mxGeometry relative="1" as="geometry" />
        </mxCell>
        <mxCell id="Kib020q9NDJkZ7_L9mo0-47" style="edgeStyle=orthogonalEdgeStyle;rounded=0;orthogonalLoop=1;jettySize=auto;html=1;fontSize=32;" parent="1" source="Kib020q9NDJkZ7_L9mo0-43" target="Kib020q9NDJkZ7_L9mo0-39" edge="1">
          <mxGeometry relative="1" as="geometry">
            <Array as="points">
              <mxPoint x="1610" y="835" />
              <mxPoint x="1610" y="379" />
            </Array>
          </mxGeometry>
        </mxCell>
        <mxCell id="Kib020q9NDJkZ7_L9mo0-54" value="&lt;div&gt;EFS&lt;/div&gt;&lt;div&gt;&lt;br&gt;&lt;/div&gt;" style="outlineConnect=0;dashed=0;verticalLabelPosition=bottom;verticalAlign=top;align=center;html=1;shape=mxgraph.aws3.efs;fillColor=#E05243;gradientColor=none;fontSize=32;" parent="1" vertex="1">
          <mxGeometry x="2250" y="330" width="130" height="160" as="geometry" />
        </mxCell>
        <mxCell id="Kib020q9NDJkZ7_L9mo0-55" value="&lt;h1 id=&quot;Amazon_Elasticsearch_Service&quot; class=&quot;lb-txt-bold lb-txt-white lb-txt-44 lb-none-v-margin lb-h1-large lb-title&quot; style=&quot;margin-top: 10px ; margin-bottom: 0px&quot;&gt;&lt;font style=&quot;font-size: 22px&quot;&gt;&lt;span style=&quot;font-weight: normal&quot;&gt;Elasticsearch&lt;/span&gt;&lt;/font&gt;&lt;/h1&gt;" style="outlineConnect=0;dashed=0;verticalLabelPosition=bottom;verticalAlign=top;align=center;html=1;shape=mxgraph.aws3.elasticsearch_service;fillColor=#F58534;gradientColor=none;fontSize=32;" parent="1" vertex="1">
          <mxGeometry x="2000" y="446" width="67.5" height="81" as="geometry" />
        </mxCell>
        <mxCell id="Kib020q9NDJkZ7_L9mo0-59" style="edgeStyle=orthogonalEdgeStyle;rounded=0;orthogonalLoop=1;jettySize=auto;html=1;fontSize=22;" parent="1" source="Kib020q9NDJkZ7_L9mo0-57" target="Kib020q9NDJkZ7_L9mo0-55" edge="1">
          <mxGeometry relative="1" as="geometry" />
        </mxCell>
        <mxCell id="Kib020q9NDJkZ7_L9mo0-57" value="Acitive MQ" style="outlineConnect=0;fontColor=#232F3E;gradientColor=#F34482;gradientDirection=north;fillColor=#BC1356;strokeColor=#ffffff;dashed=0;verticalLabelPosition=bottom;verticalAlign=top;align=center;html=1;fontSize=22;fontStyle=0;aspect=fixed;shape=mxgraph.aws4.resourceIcon;resIcon=mxgraph.aws4.mq;" parent="1" vertex="1">
          <mxGeometry x="1840" y="447.5" width="78" height="78" as="geometry" />
        </mxCell>
        <mxCell id="Kib020q9NDJkZ7_L9mo0-62" style="edgeStyle=orthogonalEdgeStyle;rounded=0;orthogonalLoop=1;jettySize=auto;html=1;fontSize=22;" parent="1" source="Kib020q9NDJkZ7_L9mo0-61" target="Kib020q9NDJkZ7_L9mo0-57" edge="1">
          <mxGeometry relative="1" as="geometry" />
        </mxCell>
        <mxCell id="Kib020q9NDJkZ7_L9mo0-67" style="edgeStyle=orthogonalEdgeStyle;rounded=0;orthogonalLoop=1;jettySize=auto;html=1;entryX=0.363;entryY=0.594;entryDx=0;entryDy=0;entryPerimeter=0;fontSize=22;" parent="1" source="Kib020q9NDJkZ7_L9mo0-61" target="Kib020q9NDJkZ7_L9mo0-65" edge="1">
          <mxGeometry relative="1" as="geometry" />
        </mxCell>
        <mxCell id="Kib020q9NDJkZ7_L9mo0-68" style="edgeStyle=orthogonalEdgeStyle;rounded=0;orthogonalLoop=1;jettySize=auto;html=1;fontSize=22;" parent="1" source="Kib020q9NDJkZ7_L9mo0-65" target="Kib020q9NDJkZ7_L9mo0-55" edge="1">
          <mxGeometry relative="1" as="geometry" />
        </mxCell>
        <mxCell id="Kib020q9NDJkZ7_L9mo0-65" value="Standby Mq" style="outlineConnect=0;fontColor=#232F3E;gradientColor=#F34482;gradientDirection=north;fillColor=#BC1356;strokeColor=#ffffff;dashed=0;verticalLabelPosition=bottom;verticalAlign=top;align=center;html=1;fontSize=22;fontStyle=0;aspect=fixed;shape=mxgraph.aws4.resourceIcon;resIcon=mxgraph.aws4.mq;" parent="1" vertex="1">
          <mxGeometry x="1840" y="1152" width="78" height="78" as="geometry" />
        </mxCell>
        <mxCell id="Kib020q9NDJkZ7_L9mo0-71" value="&lt;font style=&quot;font-size: 32px&quot;&gt;Bucket&lt;/font&gt;" style="outlineConnect=0;dashed=0;verticalLabelPosition=bottom;verticalAlign=top;align=center;html=1;shape=mxgraph.aws3.bucket;fillColor=#E05243;gradientColor=none;fontSize=22;" parent="1" vertex="1">
          <mxGeometry x="2270" y="995" width="90" height="114" as="geometry" />
        </mxCell>
        <mxCell id="Kib020q9NDJkZ7_L9mo0-74" style="edgeStyle=orthogonalEdgeStyle;rounded=0;orthogonalLoop=1;jettySize=auto;html=1;fontSize=22;" parent="1" source="Kib020q9NDJkZ7_L9mo0-73" target="Kib020q9NDJkZ7_L9mo0-6" edge="1">
          <mxGeometry relative="1" as="geometry" />
        </mxCell>
        <mxCell id="Kib020q9NDJkZ7_L9mo0-73" value="&lt;div style=&quot;font-size: 32px&quot;&gt;&lt;font style=&quot;font-size: 32px&quot;&gt;Route 53 &lt;br&gt;&lt;/font&gt;&lt;/div&gt;&lt;div style=&quot;font-size: 32px&quot;&gt;&lt;font style=&quot;font-size: 32px&quot;&gt;DNS&lt;/font&gt;&lt;/div&gt;&lt;div style=&quot;font-size: 32px&quot;&gt;&lt;font style=&quot;font-size: 32px&quot;&gt;&lt;br&gt;&lt;/font&gt;&lt;/div&gt;" style="outlineConnect=0;dashed=0;verticalLabelPosition=bottom;verticalAlign=top;align=center;html=1;shape=mxgraph.aws3.route_53;fillColor=#F58536;gradientColor=none;fontSize=22;" parent="1" vertex="1">
          <mxGeometry x="-110" y="732" width="140" height="120" as="geometry" />
        </mxCell>
        <mxCell id="Kib020q9NDJkZ7_L9mo0-76" style="edgeStyle=orthogonalEdgeStyle;rounded=0;orthogonalLoop=1;jettySize=auto;html=1;fontSize=22;" parent="1" source="Kib020q9NDJkZ7_L9mo0-75" target="Kib020q9NDJkZ7_L9mo0-73" edge="1">
          <mxGeometry relative="1" as="geometry" />
        </mxCell>
        <mxCell id="Kib020q9NDJkZ7_L9mo0-75" value="" style="outlineConnect=0;fontColor=#232F3E;gradientColor=none;fillColor=#232F3E;strokeColor=none;dashed=0;verticalLabelPosition=bottom;verticalAlign=top;align=center;html=1;fontSize=12;fontStyle=0;aspect=fixed;pointerEvents=1;shape=mxgraph.aws4.users;" parent="1" vertex="1">
          <mxGeometry x="-120" y="369" width="78" height="78" as="geometry" />
        </mxCell>
        <mxCell id="Kib020q9NDJkZ7_L9mo0-77" value="&lt;font style=&quot;font-size: 32px&quot;&gt;Cloud front &lt;br&gt;CDN&lt;br&gt;&lt;/font&gt;" style="outlineConnect=0;dashed=0;verticalLabelPosition=bottom;verticalAlign=top;align=center;html=1;shape=mxgraph.aws3.cloudfront;fillColor=#F58536;gradientColor=none;fontSize=22;" parent="1" vertex="1">
          <mxGeometry x="2257.5" y="1247.5" width="115" height="163" as="geometry" />
        </mxCell>
        <mxCell id="Kib020q9NDJkZ7_L9mo0-79" value="&lt;div&gt;Cloud watch &lt;br&gt;&lt;/div&gt;&lt;div&gt;&lt;br&gt;&lt;/div&gt;" style="outlineConnect=0;dashed=0;verticalLabelPosition=bottom;verticalAlign=top;align=center;html=1;shape=mxgraph.aws3.cloudwatch;fillColor=#759C3E;gradientColor=none;fontSize=22;" parent="1" vertex="1">
          <mxGeometry x="2250" y="140" width="82.5" height="93" as="geometry" />
        </mxCell>
      </root>
    </mxGraphModel>
  </diagram>
</mxfile>
